Instacart Market Basket Analysis
…
instacart_raw_list %>% names()

## [1] "aisles"                "departments"           "desktop"              
## [4] "orders"                "order_products__prior" "order_products__train"
## [7] "products"

Well create a market basket from the orders by combining order_products__prior" and the products data. We can see that its 32.4M rows, which is a lot of data to deal with. Creating a recommender with this size data set would be a lot to handle.

market_basket_tbl <- instacart_raw_list$order_products__prior %>%
    inner_join(instacart_raw_list$products, by = "product_id")

market_basket_tbl %>%
    select(order_id, product_name)

## # A tibble: 32,434,489 x 2
##    order_id product_name                                         
##       <int> <chr>                                                
##  1        2 Organic Egg Whites                                   
##  2        2 Michigan Organic Kale                                
##  3        2 Garlic Powder                                        
##  4        2 Coconut Butter                                       
##  5        2 Natural Sweetener                                    
##  6        2 Carrots                                              
##  7        2 Original Unflavored Gelatine Mix                     
##  8        2 All Natural No Stir Creamy Almond Butter             
##  9        2 Classic Blend Cole Slaw                              
## 10        3 Total 2% with Strawberry Lowfat Greek Strained Yogurt
## # ... with 32,434,479 more rows
…
Popular product which we define somewhat arbitrarily as less than or equal to 50% cumulative percent

item_frequency_tbl <- market_basket_tbl %>%
    count(product_name) %>%
    arrange(desc(n)) %>%
    mutate(
        pct = n / sum(n),
        cumulative_pct = cumsum(pct),
        popular_product = ifelse(cumulative_pct <= 0.5, "Yes", "No")
        )

item_frequency_tbl

## # A tibble: 49,677 x 5
##    product_name                n     pct cumulative_pct popular_product
##    <chr>                   <int>   <dbl>          <dbl> <chr>          
##  1 Banana                 472565 0.0146          0.0146 Yes            
##  2 Bag of Organic Bananas 379450 0.0117          0.0263 Yes            
##  3 Organic Strawberries   264683 0.00816         0.0344 Yes            
##  4 Organic Baby Spinach   241921 0.00746         0.0419 Yes            
##  5 Organic Hass Avocado   213584 0.00659         0.0485 Yes            
##  6 Organic Avocado        176815 0.00545         0.0539 Yes            
##  7 Large Lemon            152657 0.00471         0.0586 Yes            
##  8 Strawberries           142951 0.00441         0.0630 Yes            
##  9 Limes                  140627 0.00434         0.0674 Yes            
## 10 Organic Whole Milk     137905 0.00425         0.0716 Yes            
## # ... with 49,667 more rows
…
First, lets filter to only the products that are popular, meaning the top products that drive 50% of the purchases.

# Get names of top products
top_products_vec <- item_frequency_tbl %>%
    filter(popular_product == "Yes") %>%
    pull(product_name)

# Use names to filter 
top_products_basket_tbl <- market_basket_tbl %>%
    filter(product_name %in% top_products_vec) %>%
    select(order_id, product_name)

top_products_basket_tbl

## # A tibble: 16,213,256 x 2
##    order_id product_name                                         
##       <int> <chr>                                                
##  1        2 Organic Egg Whites                                   
##  2        2 Michigan Organic Kale                                
##  3        2 Carrots                                              
##  4        3 Total 2% with Strawberry Lowfat Greek Strained Yogurt
##  5        3 Unsweetened Almondmilk                               
##  6        3 Organic Baby Spinach                                 
##  7        3 Organic Ginger Root                                  
##  8        3 Air Chilled Organic Boneless Skinless Chicken Breasts
##  9        4 Plain Pre-Sliced Bagels                              
## 10        4 Goldfish Cheddar Baked Snack Crackers                
## # ... with 16,213,246 more rows
…
set.seed(100)
sample_order_ids <- sample(unique(top_products_basket_tbl$order_id), size = n_sample)

top_products_sample_tbl <- top_products_basket_tbl %>%
    # Sample orders
    filter(order_id %in% sample_order_ids) %>%
    # Filter using min_items
    group_by(order_id) %>%
    filter(n() >= min_items) %>%
    ungroup()

top_products_sample_tbl

## # A tibble: 102,599 x 2
##    order_id product_name                    
##       <int> <chr>                           
##  1      660 Banana                          
##  2      660 Unsweetened Vanilla Almond Milk 
##  3      660 Original Pure Creamy Almond Milk
##  4      660 Green Seedless Grapes           
##  5      660 Organic Half & Half             
##  6      724 Red Plums                       
##  7      724 Organic Raspberries             
##  8      724 Organic Strawberries            
##  9      724 Organic Hass Avocado            
## 10      803 Banana                          
## # ... with 102,589 more rows
…
We can now map() this function to obtain all of the results in a tidy format. However, this still returns a list of 5 tibbles, and we need a single tibble so we can compare all the models against each other. Well use a new function called enframe() to turn the list into a nested tibble with the names in a single column and the values in a nested column. We tack on an unnest() to get the results in a single level, unnested tibble.

results_tbl <- results_rlab %>%
    map(tidy_confusion_matrix) %>%
    enframe() %>%
    unnest()

results_tbl

## # A tibble: 50 x 10
##    name  n          TP    FP    FN    TN precision  recall     TPR     FPR
##    <chr> <chr>   <dbl> <dbl> <dbl> <dbl>     <dbl>   <dbl>   <dbl>   <dbl>
##  1 rand~ 1     0.00141 0.999 0.999  785.   0.00141 0.00141 0.00141 0.00127
##  2 rand~ 2     0.00424 2.00  0.996  784.   0.00212 0.00424 0.00424 0.00254
##  3 rand~ 3     0.00494 3.00  0.995  783.   0.00165 0.00494 0.00494 0.00381
##  4 rand~ 4     0.00565 3.99  0.994  782.   0.00141 0.00565 0.00565 0.00508
##  5 rand~ 5     0.00777 4.99  0.992  781.   0.00155 0.00777 0.00777 0.00635
##  6 rand~ 6     0.00847 5.99  0.992  780.   0.00141 0.00847 0.00847 0.00762
##  7 rand~ 7     0.00918 6.99  0.991  779.   0.00131 0.00918 0.00918 0.00889
##  8 rand~ 8     0.00918 7.99  0.991  778.   0.00115 0.00918 0.00918 0.0102 
##  9 rand~ 9     0.00989 8.99  0.990  777.   0.00110 0.00989 0.00989 0.0114 
## 10 rand~ 10    0.0106  9.99  0.989  776.   0.00106 0.0106  0.0106  0.0127 
## # ... with 40 more rows
…
We can then transform the data for performance visualization.

data_transformed <- grid_search_tbl %>%
    mutate(model_id = glue("{method}_{nn}")) %>%
    select(model_id, method, nn, conf_matrix) %>%
    unnest() %>%
    mutate(model_id = as_factor(model_id) %>% fct_reorder2(FPR, TPR))

data_transformed

## # A tibble: 80 x 12
##    model_id  method    nn     n     TP    FP    FN    TN precision recall
##    <fct>     <chr>  <dbl> <dbl>  <dbl> <dbl> <dbl> <dbl>     <dbl>  <dbl>
##  1 cosine_25 cosine    25     1 0.0480 0.952 0.952  785.    0.0480 0.0480
##  2 cosine_25 cosine    25     2 0.0826 1.92  0.917  784.    0.0413 0.0826
##  3 cosine_25 cosine    25     3 0.0946 2.91  0.905  783.    0.0315 0.0946
##  4 cosine_25 cosine    25     4 0.105  3.89  0.895  782.    0.0263 0.105 
##  5 cosine_25 cosine    25     5 0.116  4.88  0.884  781.    0.0232 0.116 
##  6 cosine_25 cosine    25     6 0.128  5.87  0.872  780.    0.0213 0.128 
##  7 cosine_25 cosine    25     7 0.137  6.86  0.863  779.    0.0196 0.137 
##  8 cosine_25 cosine    25     8 0.147  7.85  0.853  778.    0.0184 0.147 
##  9 cosine_25 cosine    25     9 0.155  8.85  0.845  777.    0.0172 0.155 
## 10 cosine_25 cosine    25    10 0.162  9.84  0.838  776.    0.0162 0.162 
## # ... with 70 more rows, and 2 more variables: TPR <dbl>, FPR <dbl>
…
